0.704 0.19 0.704
0.704 0.19 -0.704
-0.704 0.19 -0.704
-0.704 0.19 0.704
0.0 -0.5 0.0
0.8 0.1 0.1
models/quadcopter3.obj
models/propeller_left.obj
models/propeller_right.obj
quad_color.jpg
prop_color.jpg
